"export-plot data (NetLogo 5.2.1)"
"3_awareness_behavior_media.nlogo"
"03/27/2016 19:27:44:147 -0400"

"MODEL SETTINGS"
"initial-people","aw-average-recovery-time","aw-react-flee-percent","aw-react-ignore-percent","use-single-infected-agent","infection-chance","average-recovery-time","recovery-chance","use-who-index-for-class-assignment","aw-infection-chance","percentage-infected-media-broadcast","aw-react-hide-percent","media-awareness-chance","aw-recovery-chance","manual-media-broadcast-tick","media-listener-percent","use-percentage-infected-media-broadcast?"
"600","800","0","90","true","11","100","15","false","11","40","10","100","15","50","50","true"

"""Populations"""
"x min","x max","y min","y max","autoplot?","current pen","legend open?","number of pens"
"0","290","0","659","true","""Infected""","false","5"

"pen name","pen down?","mode","interval","color","x"
"""Infected""","true","0","1","15","289"
"""Susceptible""","true","0","1","0","289"
"""Aware""","true","0","1","45","289"
"""Recovered""","true","0","1","55","289"
"""Media broadcast""","true","0","1","5","118"

"""Infected""",,,,"""Susceptible""",,,,"""Aware""",,,,"""Recovered""",,,,"""Media broadcast"""
"x","y","color","pen down?","x","y","color","pen down?","x","y","color","pen down?","x","y","color","pen down?","x","y","color","pen down?"
"0","1","15","true","0","599","0","true","0","0","45","true","0","0","55","true","118","0","5","false"
"1","1","15","true","1","599","0","true","1","0","45","true","1","0","55","true","118","659","5","true"
"2","1","15","true","2","599","0","true","2","0","45","true","2","0","55","true","118","0","5","false"
"3","1","15","true","3","599","0","true","3","0","45","true","3","0","55","true","118","659","5","true"
"4","1","15","true","4","599","0","true","4","0","45","true","4","0","55","true","118","0","5","false"
"5","1","15","true","5","598","0","true","5","1","45","true","5","0","55","true","118","659","5","true"
"6","1","15","true","6","597","0","true","6","2","45","true","6","0","55","true","118","0","5","false"
"7","3","15","true","7","597","0","true","7","2","45","true","7","0","55","true","118","659","5","true"
"8","3","15","true","8","596","0","true","8","3","45","true","8","0","55","true","118","0","5","false"
"9","3","15","true","9","596","0","true","9","3","45","true","9","0","55","true","118","659","5","true"
"10","3","15","true","10","594","0","true","10","5","45","true","10","0","55","true","118","0","5","false"
"11","4","15","true","11","593","0","true","11","5","45","true","11","0","55","true","118","659","5","true"
"12","4","15","true","12","592","0","true","12","6","45","true","12","0","55","true","118","0","5","false"
"13","4","15","true","13","590","0","true","13","8","45","true","13","0","55","true","118","659","5","true"
"14","6","15","true","14","588","0","true","14","11","45","true","14","0","55","true","118","0","5","false"
"15","8","15","true","15","587","0","true","15","12","45","true","15","0","55","true","118","659","5","true"
"16","10","15","true","16","586","0","true","16","13","45","true","16","0","55","true","118","0","5","false"
"17","10","15","true","17","586","0","true","17","13","45","true","17","0","55","true","118","659","5","true"
"18","11","15","true","18","586","0","true","18","13","45","true","18","0","55","true","118","0","5","false"
"19","11","15","true","19","586","0","true","19","13","45","true","19","0","55","true","118","659","5","true"
"20","11","15","true","20","586","0","true","20","13","45","true","20","0","55","true","118","0","5","false"
"21","11","15","true","21","585","0","true","21","14","45","true","21","0","55","true","118","659","5","true"
"22","11","15","true","22","584","0","true","22","16","45","true","22","0","55","true","118","0","5","false"
"23","12","15","true","23","580","0","true","23","19","45","true","23","0","55","true","118","659","5","true"
"24","14","15","true","24","578","0","true","24","20","45","true","24","0","55","true","118","0","5","false"
"25","16","15","true","25","574","0","true","25","23","45","true","25","0","55","true","118","659","5","true"
"26","16","15","true","26","574","0","true","26","23","45","true","26","0","55","true","118","0","5","false"
"27","17","15","true","27","573","0","true","27","24","45","true","27","0","55","true","118","659","5","true"
"28","17","15","true","28","572","0","true","28","25","45","true","28","0","55","true","118","0","5","false"
"29","18","15","true","29","572","0","true","29","25","45","true","29","0","55","true","118","659","5","true"
"30","19","15","true","30","572","0","true","30","27","45","true","30","0","55","true","118","0","5","false"
"31","19","15","true","31","570","0","true","31","29","45","true","31","0","55","true","118","659","5","true"
"32","19","15","true","32","567","0","true","32","32","45","true","32","0","55","true","118","0","5","false"
"33","20","15","true","33","565","0","true","33","34","45","true","33","0","55","true","118","659","5","true"
"34","21","15","true","34","562","0","true","34","36","45","true","34","0","55","true","118","0","5","false"
"35","22","15","true","35","560","0","true","35","38","45","true","35","0","55","true","118","659","5","true"
"36","22","15","true","36","560","0","true","36","39","45","true","36","0","55","true","118","0","5","false"
"37","23","15","true","37","557","0","true","37","41","45","true","37","0","55","true","118","659","5","true"
"38","23","15","true","38","557","0","true","38","41","45","true","38","0","55","true","118","0","5","false"
"39","23","15","true","39","554","0","true","39","44","45","true","39","0","55","true","118","659","5","true"
"40","24","15","true","40","552","0","true","40","47","45","true","40","0","55","true","118","0","5","false"
"41","25","15","true","41","550","0","true","41","49","45","true","41","0","55","true","118","659","5","true"
"42","25","15","true","42","547","0","true","42","52","45","true","42","0","55","true","118","0","5","false"
"43","27","15","true","43","545","0","true","43","54","45","true","43","0","55","true","118","659","5","true"
"44","29","15","true","44","543","0","true","44","56","45","true","44","0","55","true","118","0","5","false"
"45","29","15","true","45","539","0","true","45","60","45","true","45","0","55","true","118","659","5","true"
"46","29","15","true","46","537","0","true","46","62","45","true","46","0","55","true","118","0","5","false"
"47","31","15","true","47","534","0","true","47","65","45","true","47","0","55","true","118","659","5","true"
"48","31","15","true","48","532","0","true","48","67","45","true","48","0","55","true","118","0","5","false"
"49","32","15","true","49","526","0","true","49","73","45","true","49","0","55","true","118","659","5","true"
"50","32","15","true","50","519","0","true","50","81","45","true","50","0","55","true","118","0","5","false"
"51","36","15","true","51","514","0","true","51","84","45","true","51","0","55","true","118","659","5","true"
"52","36","15","true","52","508","0","true","52","91","45","true","52","0","55","true","118","0","5","false"
"53","40","15","true","53","501","0","true","53","98","45","true","53","0","55","true","118","659","5","true"
"54","42","15","true","54","497","0","true","54","101","45","true","54","0","55","true","118","0","5","false"
"55","42","15","true","55","486","0","true","55","112","45","true","55","0","55","true","118","659","5","true"
"56","44","15","true","56","485","0","true","56","113","45","true","56","0","55","true","118","0","5","false"
"57","45","15","true","57","483","0","true","57","115","45","true","57","0","55","true","118","659","5","true"
"58","47","15","true","58","481","0","true","58","118","45","true","58","0","55","true","118","0","5","false"
"59","47","15","true","59","479","0","true","59","120","45","true","59","0","55","true","118","659","5","true"
"60","49","15","true","60","476","0","true","60","123","45","true","60","0","55","true","118","0","5","false"
"61","51","15","true","61","473","0","true","61","126","45","true","61","0","55","true","118","659","5","true"
"62","55","15","true","62","464","0","true","62","133","45","true","62","0","55","true","118","0","5","false"
"63","59","15","true","63","462","0","true","63","135","45","true","63","0","55","true","118","659","5","true"
"64","59","15","true","64","460","0","true","64","137","45","true","64","0","55","true","118","0","5","false"
"65","61","15","true","65","456","0","true","65","141","45","true","65","0","55","true","118","659","5","true"
"66","62","15","true","66","450","0","true","66","148","45","true","66","0","55","true","118","0","5","false"
"67","65","15","true","67","446","0","true","67","152","45","true","67","0","55","true","118","659","5","true"
"68","67","15","true","68","439","0","true","68","160","45","true","68","0","55","true","118","0","5","false"
"69","69","15","true","69","433","0","true","69","165","45","true","69","0","55","true","118","659","5","true"
"70","69","15","true","70","431","0","true","70","167","45","true","70","0","55","true","118","0","5","false"
"71","70","15","true","71","427","0","true","71","171","45","true","71","0","55","true","118","659","5","true"
"72","70","15","true","72","421","0","true","72","177","45","true","72","0","55","true","118","0","5","false"
"73","71","15","true","73","416","0","true","73","182","45","true","73","0","55","true","118","659","5","true"
"74","73","15","true","74","407","0","true","74","191","45","true","74","0","55","true","118","0","5","false"
"75","74","15","true","75","404","0","true","75","194","45","true","75","0","55","true","118","659","5","true"
"76","75","15","true","76","399","0","true","76","199","45","true","76","0","55","true","118","0","5","false"
"77","81","15","true","77","396","0","true","77","201","45","true","77","0","55","true","118","659","5","true"
"78","82","15","true","78","393","0","true","78","204","45","true","78","0","55","true","118","0","5","false"
"79","85","15","true","79","391","0","true","79","207","45","true","79","0","55","true","118","659","5","true"
"80","91","15","true","80","385","0","true","80","213","45","true","80","0","55","true","118","0","5","false"
"81","92","15","true","81","380","0","true","81","219","45","true","81","0","55","true","118","659","5","true"
"82","94","15","true","82","376","0","true","82","223","45","true","82","0","55","true","118","0","5","false"
"83","99","15","true","83","370","0","true","83","228","45","true","83","0","55","true","118","659","5","true"
"84","102","15","true","84","367","0","true","84","231","45","true","84","0","55","true","118","0","5","false"
"85","105","15","true","85","358","0","true","85","238","45","true","85","0","55","true","118","659","5","true"
"86","108","15","true","86","352","0","true","86","244","45","true","86","0","55","true","118","0","5","false"
"87","112","15","true","87","350","0","true","87","245","45","true","87","0","55","true","118","659","5","true"
"88","120","15","true","88","342","0","true","88","256","45","true","88","0","55","true","118","0","5","false"
"89","126","15","true","89","339","0","true","89","258","45","true","89","0","55","true","118","659","5","true"
"90","132","15","true","90","333","0","true","90","261","45","true","90","0","55","true","118","0","5","false"
"91","137","15","true","91","330","0","true","91","263","45","true","91","0","55","true","118","659","5","true"
"92","140","15","true","92","326","0","true","92","267","45","true","92","0","55","true","118","0","5","false"
"93","143","15","true","93","320","0","true","93","274","45","true","93","0","55","true","118","659","5","true"
"94","145","15","true","94","315","0","true","94","281","45","true","94","0","55","true","118","0","5","false"
"95","147","15","true","95","310","0","true","95","287","45","true","95","0","55","true","118","659","5","true"
"96","152","15","true","96","300","0","true","96","296","45","true","96","0","55","true","118","0","5","false"
"97","160","15","true","97","293","0","true","97","302","45","true","97","0","55","true","118","659","5","true"
"98","164","15","true","98","285","0","true","98","310","45","true","98","0","55","true","118","0","5","false"
"99","169","15","true","99","278","0","true","99","317","45","true","99","0","55","true","118","659","5","true"
"100","171","15","true","100","272","0","true","100","323","45","true","100","0","55","true","118","0","5","false"
"101","174","15","true","101","265","0","true","101","332","45","true","101","0","55","true","118","659","5","true"
"102","178","15","true","102","256","0","true","102","340","45","true","102","0","55","true","118","0","5","false"
"103","183","15","true","103","249","0","true","103","348","45","true","103","0","55","true","118","659","5","true"
"104","189","15","true","104","242","0","true","104","355","45","true","104","0","55","true","118","0","5","false"
"105","199","15","true","105","233","0","true","105","364","45","true","105","0","55","true","118","659","5","true"
"106","204","15","true","106","223","0","true","106","374","45","true","106","0","55","true","118","0","5","false"
"107","207","15","true","107","213","0","true","107","383","45","true","107","1","55","true","118","659","5","true"
"108","212","15","true","108","205","0","true","108","389","45","true","108","1","55","true","118","0","5","false"
"109","215","15","true","109","199","0","true","109","397","45","true","109","1","55","true","118","659","5","true"
"110","218","15","true","110","190","0","true","110","407","45","true","110","1","55","true","118","0","5","false"
"111","223","15","true","111","184","0","true","111","413","45","true","111","1","55","true","118","659","5","true"
"112","227","15","true","112","176","0","true","112","422","45","true","112","1","55","true","118","0","5","false"
"113","230","15","true","113","167","0","true","113","430","45","true","113","1","55","true","118","659","5","true"
"114","234","15","true","114","158","0","true","114","438","45","true","114","2","55","true","118","0","5","false"
"115","236","15","true","115","153","0","true","115","440","45","true","115","4","55","true","118","659","5","true"
"116","238","15","true","116","147","0","true","116","445","45","true","116","4","55","true","118","0","5","false"
"117","242","15","true","117","144","0","true","117","448","45","true","117","4","55","true","118","659","5","true"
"118","246","15","true","118","63","0","true","118","533","45","true","118","4","55","true","118","0","5","false"
"119","249","15","true","119","55","0","true","119","541","45","true","119","4","55","true","118","659","5","true"
"120","251","15","true","120","45","0","true","120","551","45","true","120","4","55","true","118","0","5","false"
"121","255","15","true","121","37","0","true","121","559","45","true","121","5","55","true","118","659","5","true"
"122","259","15","true","122","29","0","true","122","568","45","true","122","5","55","true","118","0","5","false"
"123","266","15","true","123","26","0","true","123","570","45","true","123","6","55","true","118","659","5","true"
"124","269","15","true","124","21","0","true","124","572","45","true","124","9","55","true","118","0","5","false"
"125","277","15","true","125","17","0","true","125","575","45","true","125","9","55","true","118","659","5","true"
"126","285","15","true","126","14","0","true","126","577","45","true","126","9","55","true","118","0","5","false"
"127","287","15","true","127","10","0","true","127","579","45","true","127","11","55","true","118","659","5","true"
"128","292","15","true","128","7","0","true","128","582","45","true","128","12","55","true","118","0","5","false"
"129","294","15","true","129","7","0","true","129","582","45","true","129","13","55","true","118","659","5","true"
"130","300","15","true","130","4","0","true","130","584","45","true","130","14","55","true","118","0","5","false"
"131","310","15","true","131","4","0","true","131","584","45","true","131","14","55","true","118","659","5","true"
"132","316","15","true","132","4","0","true","132","584","45","true","132","14","55","true","118","0","5","false"
"133","319","15","true","133","4","0","true","133","583","45","true","133","15","55","true","118","659","5","true"
"134","326","15","true","134","3","0","true","134","584","45","true","134","15","55","true","118","0","5","false"
"135","333","15","true","135","3","0","true","135","584","45","true","135","15","55","true","118","659","5","true"
"136","343","15","true","136","3","0","true","136","584","45","true","136","15","55","true","118","0","5","false"
"137","354","15","true","137","3","0","true","137","583","45","true","137","16","55","true","118","659","5","true"
"138","357","15","true","138","3","0","true","138","581","45","true","138","18","55","true","118","0","5","false"
"139","360","15","true","139","2","0","true","139","582","45","true","139","18","55","true","118","659","5","true"
"140","364","15","true","140","1","0","true","140","583","45","true","140","18","55","true","118","0","5","false"
"141","366","15","true","141","1","0","true","141","582","45","true","141","19","55","true","118","659","5","true"
"142","369","15","true","142","0","0","true","142","582","45","true","142","20","55","true","118","0","5","false"
"143","380","15","true","143","0","0","true","143","582","45","true","143","20","55","true","118","659","5","true"
"144","385","15","true","144","0","0","true","144","580","45","true","144","22","55","true","118","0","5","false"
"145","388","15","true","145","0","0","true","145","578","45","true","145","24","55","true","118","659","5","true"
"146","392","15","true","146","0","0","true","146","576","45","true","146","26","55","true","118","0","5","false"
"147","397","15","true","147","0","0","true","147","575","45","true","147","27","55","true","118","659","5","true"
"148","406","15","true","148","0","0","true","148","573","45","true","148","29","55","true","118","0","5","false"
"149","413","15","true","149","0","0","true","149","573","45","true","149","29","55","true","118","659","5","true"
"150","419","15","true","150","0","0","true","150","572","45","true","150","30","55","true","118","0","5","false"
"151","426","15","true","151","0","0","true","151","570","45","true","151","32","55","true","118","659","5","true"
"152","431","15","true","152","0","0","true","152","569","45","true","152","33","55","true","118","0","5","false"
"153","436","15","true","153","0","0","true","153","569","45","true","153","33","55","true","118","659","5","true"
"154","441","15","true","154","0","0","true","154","568","45","true","154","34","55","true","118","0","5","false"
"155","444","15","true","155","0","0","true","155","567","45","true","155","35","55","true","118","659","5","true"
"156","449","15","true","156","0","0","true","156","566","45","true","156","36","55","true","118","0","5","false"
"157","455","15","true","157","0","0","true","157","563","45","true","157","39","55","true","118","659","5","true"
"158","463","15","true","158","0","0","true","158","562","45","true","158","40","55","true","118","0","5","false"
"159","469","15","true","159","0","0","true","159","560","45","true","159","42","55","true","118","659","5","true"
"160","474","15","true","160","0","0","true","160","559","45","true","160","43","55","true","118","0","5","false"
"161","479","15","true","161","0","0","true","161","559","45","true","161","43","55","true","118","659","5","true"
"162","477","15","true","162","0","0","true","162","555","45","true","162","47","55","true","118","0","5","false"
"163","478","15","true","163","0","0","true","163","554","45","true","163","48","55","true","118","659","5","true"
"164","479","15","true","164","0","0","true","164","553","45","true","164","49","55","true","118","0","5","false"
"165","477","15","true","165","0","0","true","165","549","45","true","165","53","55","true","118","659","5","true"
"166","478","15","true","166","0","0","true","166","547","45","true","166","55","55","true","118","0","5","false"
"167","479","15","true","167","0","0","true","167","546","45","true","167","56","55","true","118","659","5","true"
"168","478","15","true","168","0","0","true","168","544","45","true","168","58","55","true","118","0","5","false"
"169","477","15","true","169","0","0","true","169","542","45","true","169","60","55","true","118","659","5","true"
"170","476","15","true","170","0","0","true","170","541","45","true","170","61","55","true","118","0","5","false"
"171","478","15","true","171","0","0","true","171","541","45","true","171","61","55","true","118","659","5","true"
"172","479","15","true","172","0","0","true","172","539","45","true","172","63","55","true","118","0","5","false"
"173","479","15","true","173","0","0","true","173","539","45","true","173","63","55","true","118","659","5","true"
"174","472","15","true","174","0","0","true","174","532","45","true","174","70","55","true","118","0","5","false"
"175","470","15","true","175","0","0","true","175","530","45","true","175","72","55","true","118","659","5","true"
"176","470","15","true","176","0","0","true","176","530","45","true","176","72","55","true","118","0","5","false"
"177","470","15","true","177","0","0","true","177","529","45","true","177","73","55","true","118","659","5","true"
"178","469","15","true","178","0","0","true","178","527","45","true","178","75","55","true","118","0","5","false"
"179","466","15","true","179","0","0","true","179","524","45","true","179","78","55","true","118","659","5","true"
"180","466","15","true","180","0","0","true","180","523","45","true","180","79","55","true","118","0","5","false"
"181","465","15","true","181","0","0","true","181","522","45","true","181","80","55","true","118","659","5","true"
"182","464","15","true","182","0","0","true","182","520","45","true","182","82","55","true","118","0","5","false"
"183","459","15","true","183","0","0","true","183","515","45","true","183","87","55","true","118","659","5","true"
"184","457","15","true","184","0","0","true","184","513","45","true","184","89","55","true","118","0","5","false"
"185","455","15","true","185","0","0","true","185","511","45","true","185","91","55","true","118","659","5","true"
"186","451","15","true","186","0","0","true","186","507","45","true","186","95","55","true","118","0","5","false"
"187","450","15","true","187","0","0","true","187","506","45","true","187","96","55","true","118","659","5","true"
"188","447","15","true","188","0","0","true","188","503","45","true","188","99","55","true","118","0","5","false"
"189","445","15","true","189","0","0","true","189","501","45","true","189","101","55","true","118","659","5","true"
"190","443","15","true","190","0","0","true","190","499","45","true","190","103","55","true","118","0","5","false"
"191","437","15","true","191","0","0","true","191","493","45","true","191","109","55","true","118","659","5","true"
"192","434","15","true","192","0","0","true","192","490","45","true","192","112","55","true","118","0","5","false"
"193","430","15","true","193","0","0","true","193","486","45","true","193","116","55","true","118","659","5","true"
"194","429","15","true","194","0","0","true","194","485","45","true","194","117","55","true","118","0","5","false"
"195","425","15","true","195","0","0","true","195","481","45","true","195","121","55","true","118","659","5","true"
"196","421","15","true","196","0","0","true","196","477","45","true","196","125","55","true","118","0","5","false"
"197","415","15","true","197","0","0","true","197","471","45","true","197","131","55","true","118","659","5","true"
"198","414","15","true","198","0","0","true","198","470","45","true","198","132","55","true","118","0","5","false"
"199","404","15","true","199","0","0","true","199","460","45","true","199","142","55","true","118","659","5","true"
"200","401","15","true","200","0","0","true","200","457","45","true","200","145","55","true","118","0","5","false"
"201","394","15","true","201","0","0","true","201","450","45","true","201","152","55","true","118","659","5","true"
"202","387","15","true","202","0","0","true","202","443","45","true","202","159","55","true","118","0","5","false"
"203","383","15","true","203","0","0","true","203","439","45","true","203","163","55","true","118","659","5","true"
"204","381","15","true","204","0","0","true","204","437","45","true","204","165","55","true","118","0","5","false"
"205","376","15","true","205","0","0","true","205","432","45","true","205","170","55","true","118","659","5","true"
"206","372","15","true","206","0","0","true","206","428","45","true","206","174","55","true","118","0","5","false"
"207","364","15","true","207","0","0","true","207","420","45","true","207","182","55","true","118","659","5","true"
"208","356","15","true","208","0","0","true","208","412","45","true","208","190","55","true","118","0","5","false"
"209","353","15","true","209","0","0","true","209","409","45","true","209","193","55","true","118","659","5","true"
"210","348","15","true","210","0","0","true","210","404","45","true","210","198","55","true","118","0","5","false"
"211","343","15","true","211","0","0","true","211","399","45","true","211","203","55","true","118","659","5","true"
"212","342","15","true","212","0","0","true","212","398","45","true","212","204","55","true","118","0","5","false"
"213","335","15","true","213","0","0","true","213","391","45","true","213","211","55","true","118","659","5","true"
"214","334","15","true","214","0","0","true","214","390","45","true","214","212","55","true","118","0","5","false"
"215","330","15","true","215","0","0","true","215","386","45","true","215","216","55","true","118","659","5","true"
"216","326","15","true","216","0","0","true","216","382","45","true","216","220","55","true","118","0","5","false"
"217","321","15","true","217","0","0","true","217","377","45","true","217","225","55","true","118","659","5","true"
"218","321","15","true","218","0","0","true","218","377","45","true","218","225","55","true","118","0","5","false"
"219","320","15","true","219","0","0","true","219","376","45","true","219","226","55","true","118","659","5","true"
"220","319","15","true","220","0","0","true","220","375","45","true","220","227","55","true","118","0","5","false"
"221","314","15","true","221","0","0","true","221","370","45","true","221","232","55","true","118","659","5","true"
"222","308","15","true","222","0","0","true","222","364","45","true","222","238","55","true","118","0","5","false"
"223","306","15","true","223","0","0","true","223","362","45","true","223","240","55","true","118","659","5","true"
"224","301","15","true","224","0","0","true","224","357","45","true","224","245","55","true","118","0","5","false"
"225","299","15","true","225","0","0","true","225","355","45","true","225","247","55","true","118","659","5","true"
"226","291","15","true","226","0","0","true","226","347","45","true","226","255","55","true","118","0","5","false"
"227","286","15","true","227","0","0","true","227","342","45","true","227","260","55","true","118","659","5","true"
"228","278","15","true","228","0","0","true","228","334","45","true","228","268","55","true","118","0","5","false"
"229","273","15","true","229","0","0","true","229","329","45","true","229","273","55","true","118","659","5","true"
"230","267","15","true","230","0","0","true","230","323","45","true","230","279","55","true","118","0","5","false"
"231","261","15","true","231","0","0","true","231","317","45","true","231","285","55","true","118","659","5","true"
"232","252","15","true","232","0","0","true","232","308","45","true","232","294","55","true","118","0","5","false"
"233","247","15","true","233","0","0","true","233","303","45","true","233","299","55","true","118","659","5","true"
"234","243","15","true","234","0","0","true","234","299","45","true","234","303","55","true","118","0","5","false"
"235","233","15","true","235","0","0","true","235","289","45","true","235","313","55","true","118","659","5","true"
"236","227","15","true","236","0","0","true","236","283","45","true","236","319","55","true","118","0","5","false"
"237","218","15","true","237","0","0","true","237","274","45","true","237","328","55","true","118","659","5","true"
"238","213","15","true","238","0","0","true","238","269","45","true","238","333","55","true","118","0","5","false"
"239","210","15","true","239","0","0","true","239","266","45","true","239","336","55","true","118","659","5","true"
"240","197","15","true","240","0","0","true","240","253","45","true","240","349","55","true","118","0","5","false"
"241","192","15","true","241","0","0","true","241","248","45","true","241","354","55","true","118","659","5","true"
"242","187","15","true","242","0","0","true","242","243","45","true","242","359","55","true","118","0","5","false"
"243","184","15","true","243","0","0","true","243","240","45","true","243","362","55","true","118","659","5","true"
"244","177","15","true","244","0","0","true","244","233","45","true","244","369","55","true","118","0","5","false"
"245","175","15","true","245","0","0","true","245","231","45","true","245","371","55","true","118","659","5","true"
"246","168","15","true","246","0","0","true","246","224","45","true","246","378","55","true","118","0","5","false"
"247","160","15","true","247","0","0","true","247","216","45","true","247","386","55","true","118","659","5","true"
"248","155","15","true","248","0","0","true","248","211","45","true","248","391","55","true","118","0","5","false"
"249","147","15","true","249","0","0","true","249","203","45","true","249","399","55","true","118","659","5","true"
"250","142","15","true","250","0","0","true","250","198","45","true","250","404","55","true","118","0","5","false"
"251","134","15","true","251","0","0","true","251","190","45","true","251","412","55","true","118","659","5","true"
"252","131","15","true","252","0","0","true","252","187","45","true","252","415","55","true","118","0","5","false"
"253","122","15","true","253","0","0","true","253","178","45","true","253","424","55","true","118","659","5","true"
"254","114","15","true","254","0","0","true","254","170","45","true","254","432","55","true","118","0","5","false"
"255","107","15","true","255","0","0","true","255","163","45","true","255","439","55","true","118","659","5","true"
"256","98","15","true","256","0","0","true","256","154","45","true","256","448","55","true","118","0","5","false"
"257","86","15","true","257","0","0","true","257","142","45","true","257","460","55","true","118","659","5","true"
"258","82","15","true","258","0","0","true","258","138","45","true","258","464","55","true","118","0","5","false"
"259","76","15","true","259","0","0","true","259","132","45","true","259","470","55","true","118","659","5","true"
"260","67","15","true","260","0","0","true","260","123","45","true","260","479","55","true","118","0","5","false"
"261","64","15","true","261","0","0","true","261","120","45","true","261","482","55","true","118","659","5","true"
"262","54","15","true","262","0","0","true","262","110","45","true","262","492","55","true","118","0","5","false"
"263","47","15","true","263","0","0","true","263","103","45","true","263","499","55","true","118","659","5","true"
"264","45","15","true","264","0","0","true","264","101","45","true","264","501","55","true","118","0","5","false"
"265","39","15","true","265","0","0","true","265","95","45","true","265","507","55","true","118","659","5","true"
"266","36","15","true","266","0","0","true","266","92","45","true","266","510","55","true","118","0","5","false"
"267","32","15","true","267","0","0","true","267","88","45","true","267","514","55","true","118","659","5","true"
"268","29","15","true","268","0","0","true","268","85","45","true","268","517","55","true","118","0","5","false"
"269","28","15","true","269","0","0","true","269","84","45","true","269","518","55","true","118","659","5","true"
"270","22","15","true","270","0","0","true","270","78","45","true","270","524","55","true","118","0","5","false"
"271","22","15","true","271","0","0","true","271","78","45","true","271","524","55","true","118","659","5","true"
"272","16","15","true","272","0","0","true","272","72","45","true","272","530","55","true","118","0","5","false"
"273","14","15","true","273","0","0","true","273","70","45","true","273","532","55","true","118","659","5","true"
"274","12","15","true","274","0","0","true","274","68","45","true","274","534","55","true","118","0","5","false"
"275","12","15","true","275","0","0","true","275","68","45","true","275","534","55","true","118","659","5","true"
"276","11","15","true","276","0","0","true","276","67","45","true","276","535","55","true","118","0","5","false"
"277","11","15","true","277","0","0","true","277","67","45","true","277","535","55","true","118","659","5","true"
"278","11","15","true","278","0","0","true","278","67","45","true","278","535","55","true","118","0","5","false"
"279","10","15","true","279","0","0","true","279","66","45","true","279","536","55","true","118","659","5","true"
"280","8","15","true","280","0","0","true","280","64","45","true","280","538","55","true","118","0","5","false"
"281","7","15","true","281","0","0","true","281","63","45","true","281","539","55","true","118","659","5","true"
"282","5","15","true","282","0","0","true","282","61","45","true","282","541","55","true","118","0","5","false"
"283","5","15","true","283","0","0","true","283","61","45","true","283","541","55","true","118","659","5","true"
"284","3","15","true","284","0","0","true","284","59","45","true","284","543","55","true","118","0","5","false"
"285","3","15","true","285","0","0","true","285","59","45","true","285","543","55","true","118","659","5","true"
"286","2","15","true","286","0","0","true","286","58","45","true","286","544","55","true","118","0","5","false"
"287","2","15","true","287","0","0","true","287","58","45","true","287","544","55","true","118","659","5","true"
"288","2","15","true","288","0","0","true","288","58","45","true","288","544","55","true","118","0","5","false"
"289","0","15","true","289","0","0","true","289","56","45","true","289","546","55","true","118","659","5","true"
,,,,,,,,,,,,,,,,"118","0","5","false"
,,,,,,,,,,,,,,,,"118","659","5","true"
,,,,,,,,,,,,,,,,"118","0","5","false"
,,,,,,,,,,,,,,,,"118","659","5","true"
,,,,,,,,,,,,,,,,"118","0","5","false"
,,,,,,,,,,,,,,,,"118","659","5","true"
,,,,,,,,,,,,,,,,"118","0","5","false"
,,,,,,,,,,,,,,,,"118","659","5","true"
,,,,,,,,,,,,,,,,"118","0","5","false"
,,,,,,,,,,,,,,,,"118","659","5","true"
,,,,,,,,,,,,,,,,"118","0","5","false"
,,,,,,,,,,,,,,,,"118","659","5","true"
,,,,,,,,,,,,,,,,"118","0","5","false"
,,,,,,,,,,,,,,,,"118","659","5","true"
,,,,,,,,,,,,,,,,"118","0","5","false"
,,,,,,,,,,,,,,,,"118","659","5","true"
,,,,,,,,,,,,,,,,"118","0","5","false"
,,,,,,,,,,,,,,,,"118","659","5","true"
,,,,,,,,,,,,,,,,"118","0","5","false"
,,,,,,,,,,,,,,,,"118","659","5","true"
,,,,,,,,,,,,,,,,"118","0","5","false"
,,,,,,,,,,,,,,,,"118","659","5","true"
,,,,,,,,,,,,,,,,"118","0","5","false"
,,,,,,,,,,,,,,,,"118","659","5","true"
,,,,,,,,,,,,,,,,"118","0","5","false"
,,,,,,,,,,,,,,,,"118","659","5","true"
,,,,,,,,,,,,,,,,"118","0","5","false"
,,,,,,,,,,,,,,,,"118","659","5","true"
,,,,,,,,,,,,,,,,"118","0","5","false"
,,,,,,,,,,,,,,,,"118","659","5","true"
,,,,,,,,,,,,,,,,"118","0","5","false"
,,,,,,,,,,,,,,,,"118","659","5","true"
,,,,,,,,,,,,,,,,"118","0","5","false"
,,,,,,,,,,,,,,,,"118","659","5","true"
,,,,,,,,,,,,,,,,"118","0","5","false"
,,,,,,,,,,,,,,,,"118","659","5","true"
,,,,,,,,,,,,,,,,"118","0","5","false"
,,,,,,,,,,,,,,,,"118","659","5","true"
,,,,,,,,,,,,,,,,"118","0","5","false"
,,,,,,,,,,,,,,,,"118","659","5","true"
,,,,,,,,,,,,,,,,"118","0","5","false"
,,,,,,,,,,,,,,,,"118","659","5","true"
,,,,,,,,,,,,,,,,"118","0","5","false"
,,,,,,,,,,,,,,,,"118","659","5","true"
,,,,,,,,,,,,,,,,"118","0","5","false"
,,,,,,,,,,,,,,,,"118","659","5","true"
,,,,,,,,,,,,,,,,"118","0","5","false"
,,,,,,,,,,,,,,,,"118","659","5","true"
,,,,,,,,,,,,,,,,"118","0","5","false"
,,,,,,,,,,,,,,,,"118","659","5","true"
,,,,,,,,,,,,,,,,"118","0","5","false"
,,,,,,,,,,,,,,,,"118","659","5","true"
