"export-plot data (NetLogo 5.2.1)"
"4_awareness_behavior_media_twitter.nlogo"
"03/27/2016 19:29:33:066 -0400"

"MODEL SETTINGS"
"aw-average-recovery-time","aw-recovery-chance","network-member-percent","setup-network?","infection-chance","use-single-infected-agent","media-listener-percent","recovery-chance","initial-people","aw-react-flee-percent","aw-react-ignore-percent","media-awareness-chance","aw-infection-chance","average-recovery-time","use-who-index-for-class-assignment","percentage-infected-media-broadcast","aw-react-hide-percent","media-broadcast-tick","use-percentage-infected-media-broadcast?"
"800","15","10","true","11","true","100","15","600","0","90","100","11","100","false","40","10","50","true"

"""Cumulative Infected and Recovered"""
"x min","x max","y min","y max","autoplot?","current pen","legend open?","number of pens"
"0","364","0","106","true","""% infected""","false","4"

"pen name","pen down?","mode","interval","color","x"
"""% infected""","true","0","1","15","297"
"""% recovered""","true","0","1","55","297"
"""% aware""","true","0","1","45","297"
"""Media broadcast""","true","0","1","5","91"

"""% infected""",,,,"""% recovered""",,,,"""% aware""",,,,"""Media broadcast"""
"x","y","color","pen down?","x","y","color","pen down?","x","y","color","pen down?","x","y","color","pen down?"
"0","0.16666666666666669","15","true","0","0","55","true","0","0","45","true","91","0","5","false"
"1","0.16666666666666669","15","true","1","0","55","true","1","0","45","true","91","106","5","true"
"2","0.33333333333333337","15","true","2","0","55","true","2","0.16666666666666669","45","true","91","0","5","false"
"3","0.33333333333333337","15","true","3","0","55","true","3","0.5","45","true","91","106","5","true"
"4","0.33333333333333337","15","true","4","0","55","true","4","0.5","45","true","91","0","5","false"
"5","0.5","15","true","5","0","55","true","5","0.5","45","true","91","106","5","true"
"6","0.6666666666666667","15","true","6","0","55","true","6","0.6666666666666667","45","true","91","0","5","false"
"7","0.6666666666666667","15","true","7","0","55","true","7","0.6666666666666667","45","true","91","106","5","true"
"8","0.8333333333333334","15","true","8","0","55","true","8","0.8333333333333334","45","true","91","0","5","false"
"9","1","15","true","9","0","55","true","9","0.8333333333333334","45","true","91","106","5","true"
"10","1","15","true","10","0","55","true","10","1","45","true","91","0","5","false"
"11","1","15","true","11","0","55","true","11","1","45","true","91","106","5","true"
"12","1.1666666666666667","15","true","12","0","55","true","12","1.3333333333333335","45","true","91","0","5","false"
"13","1.3333333333333335","15","true","13","0","55","true","13","1.6666666666666667","45","true","91","106","5","true"
"14","1.5","15","true","14","0","55","true","14","2","45","true","91","0","5","false"
"15","1.8333333333333333","15","true","15","0","55","true","15","2.5","45","true","91","106","5","true"
"16","2.166666666666667","15","true","16","0","55","true","16","3.3333333333333335","45","true","91","0","5","false"
"17","2.666666666666667","15","true","17","0","55","true","17","4","45","true","91","106","5","true"
"18","2.833333333333333","15","true","18","0","55","true","18","4.5","45","true","91","0","5","false"
"19","2.833333333333333","15","true","19","0","55","true","19","4.666666666666667","45","true","91","106","5","true"
"20","3.166666666666667","15","true","20","0","55","true","20","4.833333333333333","45","true","91","0","5","false"
"21","3.833333333333333","15","true","21","0","55","true","21","5.166666666666667","45","true","91","106","5","true"
"22","4","15","true","22","0","55","true","22","5.5","45","true","91","0","5","false"
"23","4.666666666666667","15","true","23","0","55","true","23","6.333333333333334","45","true","91","106","5","true"
"24","4.666666666666667","15","true","24","0","55","true","24","7.5","45","true","91","0","5","false"
"25","4.833333333333333","15","true","25","0","55","true","25","8.833333333333334","45","true","91","106","5","true"
"26","5.5","15","true","26","0","55","true","26","10.166666666666666","45","true","91","0","5","false"
"27","6.166666666666667","15","true","27","0","55","true","27","11.5","45","true","91","106","5","true"
"28","6.333333333333334","15","true","28","0","55","true","28","12.166666666666668","45","true","91","0","5","false"
"29","6.666666666666667","15","true","29","0","55","true","29","13","45","true","91","106","5","true"
"30","6.833333333333333","15","true","30","0","55","true","30","14.333333333333334","45","true","91","0","5","false"
"31","7.166666666666667","15","true","31","0","55","true","31","16.166666666666664","45","true","91","106","5","true"
"32","7.5","15","true","32","0","55","true","32","17.166666666666668","45","true","91","0","5","false"
"33","7.666666666666666","15","true","33","0","55","true","33","18.5","45","true","91","106","5","true"
"34","8","15","true","34","0","55","true","34","19.5","45","true","91","0","5","false"
"35","8.166666666666666","15","true","35","0","55","true","35","21.166666666666668","45","true","91","106","5","true"
"36","9","15","true","36","0","55","true","36","22.666666666666664","45","true","91","0","5","false"
"37","9.333333333333334","15","true","37","0","55","true","37","23.166666666666664","45","true","91","106","5","true"
"38","9.833333333333332","15","true","38","0","55","true","38","24","45","true","91","0","5","false"
"39","10","15","true","39","0","55","true","39","24.833333333333332","45","true","91","106","5","true"
"40","10.666666666666668","15","true","40","0","55","true","40","27.333333333333332","45","true","91","0","5","false"
"41","12","15","true","41","0","55","true","41","30.166666666666668","45","true","91","106","5","true"
"42","12.666666666666668","15","true","42","0","55","true","42","33","45","true","91","0","5","false"
"43","13.166666666666666","15","true","43","0","55","true","43","34.66666666666667","45","true","91","106","5","true"
"44","13.833333333333334","15","true","44","0","55","true","44","36.16666666666667","45","true","91","0","5","false"
"45","14.333333333333334","15","true","45","0","55","true","45","37.833333333333336","45","true","91","106","5","true"
"46","14.666666666666666","15","true","46","0","55","true","46","40.166666666666664","45","true","91","0","5","false"
"47","15.166666666666668","15","true","47","0","55","true","47","42","45","true","91","106","5","true"
"48","16.166666666666664","15","true","48","0","55","true","48","44.666666666666664","45","true","91","0","5","false"
"49","16.833333333333332","15","true","49","0","55","true","49","46.5","45","true","91","106","5","true"
"50","17.166666666666668","15","true","50","0","55","true","50","49.5","45","true","91","0","5","false"
"51","17.166666666666668","15","true","51","0","55","true","51","52.166666666666664","45","true","91","106","5","true"
"52","17.666666666666668","15","true","52","0","55","true","52","54.50000000000001","45","true","91","0","5","false"
"53","18.5","15","true","53","0","55","true","53","57.333333333333336","45","true","91","106","5","true"
"54","18.5","15","true","54","0","55","true","54","59.66666666666667","45","true","91","0","5","false"
"55","19","15","true","55","0","55","true","55","62.5","45","true","91","106","5","true"
"56","19.833333333333332","15","true","56","0","55","true","56","64.66666666666666","45","true","91","0","5","false"
"57","19.833333333333332","15","true","57","0","55","true","57","67.5","45","true","91","106","5","true"
"58","20.166666666666664","15","true","58","0","55","true","58","70.83333333333334","45","true","91","0","5","false"
"59","20.5","15","true","59","0","55","true","59","72.5","45","true","91","106","5","true"
"60","21.333333333333336","15","true","60","0","55","true","60","74","45","true","91","0","5","false"
"61","22.166666666666668","15","true","61","0","55","true","61","75.66666666666667","45","true","91","106","5","true"
"62","22.5","15","true","62","0","55","true","62","76.66666666666667","45","true","91","0","5","false"
"63","22.666666666666664","15","true","63","0","55","true","63","78.33333333333333","45","true","91","106","5","true"
"64","23.666666666666668","15","true","64","0","55","true","64","80","45","true","91","0","5","false"
"65","24.166666666666668","15","true","65","0","55","true","65","81.5","45","true","91","106","5","true"
"66","24.833333333333332","15","true","66","0","55","true","66","82.66666666666667","45","true","91","0","5","false"
"67","25.5","15","true","67","0","55","true","67","84.16666666666667","45","true","91","106","5","true"
"68","25.833333333333336","15","true","68","0","55","true","68","86.16666666666667","45","true","91","0","5","false"
"69","26.666666666666668","15","true","69","0","55","true","69","87","45","true","91","106","5","true"
"70","27.666666666666668","15","true","70","0","55","true","70","87.5","45","true","91","0","5","false"
"71","28.000000000000004","15","true","71","0","55","true","71","88.66666666666667","45","true","91","106","5","true"
"72","28.666666666666668","15","true","72","0","55","true","72","90","45","true","91","0","5","false"
"73","28.833333333333332","15","true","73","0","55","true","73","90.5","45","true","91","106","5","true"
"74","29.166666666666668","15","true","74","0","55","true","74","91.5","45","true","91","0","5","false"
"75","29.5","15","true","75","0","55","true","75","92.16666666666666","45","true","91","106","5","true"
"76","30.5","15","true","76","0","55","true","76","93.33333333333333","45","true","91","0","5","false"
"77","31.166666666666664","15","true","77","0","55","true","77","94.16666666666667","45","true","91","106","5","true"
"78","31.833333333333336","15","true","78","0","55","true","78","95","45","true","91","0","5","false"
"79","32.5","15","true","79","0","55","true","79","95.66666666666667","45","true","91","106","5","true"
"80","32.83333333333333","15","true","80","0","55","true","80","96.33333333333334","45","true","91","0","5","false"
"81","33.33333333333333","15","true","81","0","55","true","81","96.83333333333334","45","true","91","106","5","true"
"82","34","15","true","82","0","55","true","82","97.16666666666667","45","true","91","0","5","false"
"83","34.5","15","true","83","0","55","true","83","97.33333333333334","45","true","91","106","5","true"
"84","35","15","true","84","0","55","true","84","97.33333333333334","45","true","91","0","5","false"
"85","35.333333333333336","15","true","85","0","55","true","85","97.5","45","true","91","106","5","true"
"86","36","15","true","86","0","55","true","86","97.5","45","true","91","0","5","false"
"87","36.333333333333336","15","true","87","0","55","true","87","97.5","45","true","91","106","5","true"
"88","37.5","15","true","88","0","55","true","88","97.66666666666667","45","true","91","0","5","false"
"89","39","15","true","89","0","55","true","89","97.66666666666667","45","true","91","106","5","true"
"90","39.666666666666664","15","true","90","0","55","true","90","98","45","true","91","0","5","false"
"91","40.166666666666664","15","true","91","0","55","true","91","98.16666666666667","45","true","91","106","5","true"
"92","41.16666666666667","15","true","92","0","55","true","92","100","45","true","91","0","5","false"
"93","42","15","true","93","0","55","true","93","100","45","true","91","106","5","true"
"94","43.5","15","true","94","0","55","true","94","100","45","true","91","0","5","false"
"95","44.5","15","true","95","0","55","true","95","100","45","true","91","106","5","true"
"96","45.166666666666664","15","true","96","0","55","true","96","100","45","true","91","0","5","false"
"97","46","15","true","97","0","55","true","97","100","45","true","91","106","5","true"
"98","47","15","true","98","0","55","true","98","100","45","true","91","0","5","false"
"99","48.833333333333336","15","true","99","0","55","true","99","100","45","true","91","106","5","true"
"100","49.333333333333336","15","true","100","0","55","true","100","100","45","true","91","0","5","false"
"101","49.666666666666664","15","true","101","0.16666666666666669","55","true","101","100","45","true","91","106","5","true"
"102","50.16666666666667","15","true","102","0.16666666666666669","55","true","102","100","45","true","91","0","5","false"
"103","51.16666666666667","15","true","103","0.16666666666666669","55","true","103","100","45","true","91","106","5","true"
"104","51.66666666666667","15","true","104","0.16666666666666669","55","true","104","100","45","true","91","0","5","false"
"105","52.5","15","true","105","0.33333333333333337","55","true","105","100","45","true","91","106","5","true"
"106","54","15","true","106","0.5","55","true","106","100","45","true","91","0","5","false"
"107","55.333333333333336","15","true","107","0.5","55","true","107","100","45","true","91","106","5","true"
"108","56.666666666666664","15","true","108","0.5","55","true","108","100","45","true","91","0","5","false"
"109","56.833333333333336","15","true","109","0.5","55","true","109","100","45","true","91","106","5","true"
"110","57.666666666666664","15","true","110","0.6666666666666667","55","true","110","100","45","true","91","0","5","false"
"111","59","15","true","111","0.6666666666666667","55","true","111","100","45","true","91","106","5","true"
"112","60.16666666666667","15","true","112","0.6666666666666667","55","true","112","100","45","true","91","0","5","false"
"113","60.66666666666667","15","true","113","1","55","true","113","100","45","true","91","106","5","true"
"114","61.5","15","true","114","1","55","true","114","100","45","true","91","0","5","false"
"115","62","15","true","115","1","55","true","115","100","45","true","91","106","5","true"
"116","63.33333333333333","15","true","116","1.1666666666666667","55","true","116","100","45","true","91","0","5","false"
"117","64","15","true","117","1.6666666666666667","55","true","117","100","45","true","91","106","5","true"
"118","65.16666666666666","15","true","118","2","55","true","118","100","45","true","91","0","5","false"
"119","65.83333333333333","15","true","119","2","55","true","119","100","45","true","91","106","5","true"
"120","66.16666666666666","15","true","120","2.166666666666667","55","true","120","100","45","true","91","0","5","false"
"121","66.5","15","true","121","2.3333333333333335","55","true","121","100","45","true","91","106","5","true"
"122","67","15","true","122","2.833333333333333","55","true","122","100","45","true","91","0","5","false"
"123","68","15","true","123","3","55","true","123","100","45","true","91","106","5","true"
"124","68.5","15","true","124","3.3333333333333335","55","true","124","100","45","true","91","0","5","false"
"125","69","15","true","125","3.3333333333333335","55","true","125","100","45","true","91","106","5","true"
"126","69.83333333333334","15","true","126","3.6666666666666665","55","true","126","100","45","true","91","0","5","false"
"127","71.33333333333334","15","true","127","4.333333333333334","55","true","127","100","45","true","91","106","5","true"
"128","72.33333333333334","15","true","128","4.666666666666667","55","true","128","100","45","true","91","0","5","false"
"129","72.83333333333334","15","true","129","4.666666666666667","55","true","129","100","45","true","91","106","5","true"
"130","73.66666666666667","15","true","130","5","55","true","130","100","45","true","91","0","5","false"
"131","73.66666666666667","15","true","131","5.333333333333334","55","true","131","100","45","true","91","106","5","true"
"132","74.33333333333333","15","true","132","5.333333333333334","55","true","132","100","45","true","91","0","5","false"
"133","75.16666666666667","15","true","133","5.833333333333333","55","true","133","100","45","true","91","106","5","true"
"134","75.66666666666667","15","true","134","6","55","true","134","100","45","true","91","0","5","false"
"135","77","15","true","135","6.333333333333334","55","true","135","100","45","true","91","106","5","true"
"136","78.16666666666666","15","true","136","6.666666666666667","55","true","136","100","45","true","91","0","5","false"
"137","78.83333333333333","15","true","137","7.000000000000001","55","true","137","100","45","true","91","106","5","true"
"138","79.16666666666666","15","true","138","7.166666666666667","55","true","138","100","45","true","91","0","5","false"
"139","80.33333333333333","15","true","139","7.5","55","true","139","100","45","true","91","106","5","true"
"140","80.5","15","true","140","8.333333333333332","55","true","140","100","45","true","91","0","5","false"
"141","80.83333333333333","15","true","141","8.666666666666668","55","true","141","100","45","true","91","106","5","true"
"142","81.33333333333333","15","true","142","9.166666666666666","55","true","142","100","45","true","91","0","5","false"
"143","82.16666666666667","15","true","143","9.5","55","true","143","100","45","true","91","106","5","true"
"144","82.66666666666667","15","true","144","10.666666666666668","55","true","144","100","45","true","91","0","5","false"
"145","83","15","true","145","11.5","55","true","145","100","45","true","91","106","5","true"
"146","83.5","15","true","146","12.166666666666668","55","true","146","100","45","true","91","0","5","false"
"147","84.66666666666667","15","true","147","12.833333333333332","55","true","147","100","45","true","91","106","5","true"
"148","85.16666666666667","15","true","148","13.333333333333334","55","true","148","100","45","true","91","0","5","false"
"149","86","15","true","149","13.833333333333334","55","true","149","100","45","true","91","106","5","true"
"150","86.5","15","true","150","14.166666666666666","55","true","150","100","45","true","91","0","5","false"
"151","86.83333333333333","15","true","151","15","55","true","151","100","45","true","91","106","5","true"
"152","87.16666666666667","15","true","152","15.166666666666668","55","true","152","100","45","true","91","0","5","false"
"153","87.33333333333333","15","true","153","15.333333333333332","55","true","153","100","45","true","91","106","5","true"
"154","88.33333333333333","15","true","154","16.333333333333332","55","true","154","100","45","true","91","0","5","false"
"155","88.5","15","true","155","16.666666666666664","55","true","155","100","45","true","91","106","5","true"
"156","88.66666666666667","15","true","156","17","55","true","156","100","45","true","91","0","5","false"
"157","89","15","true","157","17","55","true","157","100","45","true","91","106","5","true"
"158","89.16666666666667","15","true","158","17.166666666666668","55","true","158","100","45","true","91","0","5","false"
"159","89.16666666666667","15","true","159","18.166666666666668","55","true","159","100","45","true","91","106","5","true"
"160","89.33333333333333","15","true","160","18.5","55","true","160","100","45","true","91","0","5","false"
"161","89.66666666666666","15","true","161","18.833333333333332","55","true","161","100","45","true","91","106","5","true"
"162","89.66666666666666","15","true","162","19.5","55","true","162","100","45","true","91","0","5","false"
"163","90","15","true","163","20.333333333333332","55","true","163","100","45","true","91","106","5","true"
"164","90.16666666666666","15","true","164","21.166666666666668","55","true","164","100","45","true","91","0","5","false"
"165","90.33333333333333","15","true","165","21.333333333333336","55","true","165","100","45","true","91","106","5","true"
"166","90.33333333333333","15","true","166","21.833333333333332","55","true","166","100","45","true","91","0","5","false"
"167","90.5","15","true","167","22","55","true","167","100","45","true","91","106","5","true"
"168","90.5","15","true","168","22.166666666666668","55","true","168","100","45","true","91","0","5","false"
"169","90.66666666666666","15","true","169","22.666666666666664","55","true","169","100","45","true","91","106","5","true"
"170","90.66666666666666","15","true","170","23.666666666666668","55","true","170","100","45","true","91","0","5","false"
"171","90.66666666666666","15","true","171","24.5","55","true","171","100","45","true","91","106","5","true"
"172","90.66666666666666","15","true","172","24.5","55","true","172","100","45","true","91","0","5","false"
"173","90.66666666666666","15","true","173","25","55","true","173","100","45","true","91","106","5","true"
"174","90.83333333333333","15","true","174","25.666666666666664","55","true","174","100","45","true","91","0","5","false"
"175","90.83333333333333","15","true","175","26.166666666666664","55","true","175","100","45","true","91","106","5","true"
"176","90.83333333333333","15","true","176","27.166666666666668","55","true","176","100","45","true","91","0","5","false"
"177","91","15","true","177","27.833333333333332","55","true","177","100","45","true","91","106","5","true"
"178","91","15","true","178","28.333333333333332","55","true","178","100","45","true","91","0","5","false"
"179","91","15","true","179","28.999999999999996","55","true","179","100","45","true","91","106","5","true"
"180","91.16666666666666","15","true","180","29.666666666666668","55","true","180","100","45","true","91","0","5","false"
"181","91.16666666666666","15","true","181","30.666666666666664","55","true","181","100","45","true","91","106","5","true"
"182","91.16666666666666","15","true","182","31","55","true","182","100","45","true","91","0","5","false"
"183","91.16666666666666","15","true","183","31.166666666666664","55","true","183","100","45","true","91","106","5","true"
"184","91.16666666666666","15","true","184","31.666666666666664","55","true","184","100","45","true","91","0","5","false"
"185","91.16666666666666","15","true","185","32","55","true","185","100","45","true","91","106","5","true"
"186","91.33333333333333","15","true","186","32.666666666666664","55","true","186","100","45","true","91","0","5","false"
"187","91.33333333333333","15","true","187","33.166666666666664","55","true","187","100","45","true","91","106","5","true"
"188","91.5","15","true","188","34","55","true","188","100","45","true","91","0","5","false"
"189","91.5","15","true","189","35","55","true","189","100","45","true","91","106","5","true"
"190","91.5","15","true","190","35.333333333333336","55","true","190","100","45","true","91","0","5","false"
"191","91.5","15","true","191","36","55","true","191","100","45","true","91","106","5","true"
"192","91.5","15","true","192","36.833333333333336","55","true","192","100","45","true","91","0","5","false"
"193","91.5","15","true","193","38.166666666666664","55","true","193","100","45","true","91","106","5","true"
"194","91.5","15","true","194","39.166666666666664","55","true","194","100","45","true","91","0","5","false"
"195","91.5","15","true","195","39.666666666666664","55","true","195","100","45","true","91","106","5","true"
"196","91.5","15","true","196","40.33333333333333","55","true","196","100","45","true","91","0","5","false"
"197","91.5","15","true","197","41","55","true","197","100","45","true","91","106","5","true"
"198","91.5","15","true","198","42.66666666666667","55","true","198","100","45","true","91","0","5","false"
"199","91.5","15","true","199","43.666666666666664","55","true","199","100","45","true","91","106","5","true"
"200","91.5","15","true","200","44.333333333333336","55","true","200","100","45","true","91","0","5","false"
"201","91.5","15","true","201","45.5","55","true","201","100","45","true","91","106","5","true"
"202","91.5","15","true","202","46.166666666666664","55","true","202","100","45","true","91","0","5","false"
"203","91.5","15","true","203","46.833333333333336","55","true","203","100","45","true","91","106","5","true"
"204","91.5","15","true","204","47.5","55","true","204","100","45","true","91","0","5","false"
"205","91.5","15","true","205","48.16666666666667","55","true","205","100","45","true","91","106","5","true"
"206","91.5","15","true","206","48.66666666666667","55","true","206","100","45","true","91","0","5","false"
"207","91.5","15","true","207","49.5","55","true","207","100","45","true","91","106","5","true"
"208","91.5","15","true","208","51","55","true","208","100","45","true","91","0","5","false"
"209","91.5","15","true","209","51.66666666666667","55","true","209","100","45","true","91","106","5","true"
"210","91.5","15","true","210","52.83333333333333","55","true","210","100","45","true","91","0","5","false"
"211","91.5","15","true","211","53.833333333333336","55","true","211","100","45","true","91","106","5","true"
"212","91.5","15","true","212","54.333333333333336","55","true","212","100","45","true","91","0","5","false"
"213","91.5","15","true","213","55.333333333333336","55","true","213","100","45","true","91","106","5","true"
"214","91.5","15","true","214","56.666666666666664","55","true","214","100","45","true","91","0","5","false"
"215","91.5","15","true","215","57.666666666666664","55","true","215","100","45","true","91","106","5","true"
"216","91.5","15","true","216","58.833333333333336","55","true","216","100","45","true","91","0","5","false"
"217","91.5","15","true","217","59.833333333333336","55","true","217","100","45","true","91","106","5","true"
"218","91.5","15","true","218","60.16666666666667","55","true","218","100","45","true","91","0","5","false"
"219","91.5","15","true","219","60.5","55","true","219","100","45","true","91","106","5","true"
"220","91.5","15","true","220","61.83333333333333","55","true","220","100","45","true","91","0","5","false"
"221","91.5","15","true","221","62.16666666666667","55","true","221","100","45","true","91","106","5","true"
"222","91.5","15","true","222","62.5","55","true","222","100","45","true","91","0","5","false"
"223","91.5","15","true","223","63","55","true","223","100","45","true","91","106","5","true"
"224","91.5","15","true","224","63.83333333333333","55","true","224","100","45","true","91","0","5","false"
"225","91.5","15","true","225","65.16666666666666","55","true","225","100","45","true","91","106","5","true"
"226","91.5","15","true","226","65.16666666666666","55","true","226","100","45","true","91","0","5","false"
"227","91.5","15","true","227","65.66666666666666","55","true","227","100","45","true","91","106","5","true"
"228","91.5","15","true","228","66.16666666666666","55","true","228","100","45","true","91","0","5","false"
"229","91.5","15","true","229","67.16666666666666","55","true","229","100","45","true","91","106","5","true"
"230","91.5","15","true","230","67.5","55","true","230","100","45","true","91","0","5","false"
"231","91.5","15","true","231","68","55","true","231","100","45","true","91","106","5","true"
"232","91.5","15","true","232","69.33333333333334","55","true","232","100","45","true","91","0","5","false"
"233","91.5","15","true","233","70","55","true","233","100","45","true","91","106","5","true"
"234","91.5","15","true","234","70.83333333333334","55","true","234","100","45","true","91","0","5","false"
"235","91.5","15","true","235","71.83333333333334","55","true","235","100","45","true","91","106","5","true"
"236","91.5","15","true","236","72.5","55","true","236","100","45","true","91","0","5","false"
"237","91.5","15","true","237","73.66666666666667","55","true","237","100","45","true","91","106","5","true"
"238","91.5","15","true","238","74.16666666666667","55","true","238","100","45","true","91","0","5","false"
"239","91.5","15","true","239","75.33333333333333","55","true","239","100","45","true","91","106","5","true"
"240","91.5","15","true","240","76","55","true","240","100","45","true","91","0","5","false"
"241","91.5","15","true","241","77","55","true","241","100","45","true","91","106","5","true"
"242","91.5","15","true","242","77.66666666666666","55","true","242","100","45","true","91","0","5","false"
"243","91.5","15","true","243","78.33333333333333","55","true","243","100","45","true","91","106","5","true"
"244","91.5","15","true","244","79.83333333333333","55","true","244","100","45","true","91","0","5","false"
"245","91.5","15","true","245","80.5","55","true","245","100","45","true","91","106","5","true"
"246","91.5","15","true","246","81","55","true","246","100","45","true","91","0","5","false"
"247","91.5","15","true","247","82","55","true","247","100","45","true","91","106","5","true"
"248","91.5","15","true","248","82.16666666666667","55","true","248","100","45","true","91","0","5","false"
"249","91.5","15","true","249","82.66666666666667","55","true","249","100","45","true","91","106","5","true"
"250","91.5","15","true","250","83.66666666666667","55","true","250","100","45","true","91","0","5","false"
"251","91.5","15","true","251","84","55","true","251","100","45","true","91","106","5","true"
"252","91.5","15","true","252","85","55","true","252","100","45","true","91","0","5","false"
"253","91.5","15","true","253","85.5","55","true","253","100","45","true","91","106","5","true"
"254","91.5","15","true","254","86","55","true","254","100","45","true","91","0","5","false"
"255","91.5","15","true","255","86.33333333333333","55","true","255","100","45","true","91","106","5","true"
"256","91.5","15","true","256","87","55","true","256","100","45","true","91","0","5","false"
"257","91.5","15","true","257","87.16666666666667","55","true","257","100","45","true","91","106","5","true"
"258","91.5","15","true","258","87.33333333333333","55","true","258","100","45","true","91","0","5","false"
"259","91.5","15","true","259","87.66666666666667","55","true","259","100","45","true","91","106","5","true"
"260","91.5","15","true","260","87.66666666666667","55","true","260","100","45","true","91","0","5","false"
"261","91.5","15","true","261","88.16666666666667","55","true","261","100","45","true","91","106","5","true"
"262","91.5","15","true","262","88.5","55","true","262","100","45","true","91","0","5","false"
"263","91.5","15","true","263","88.66666666666667","55","true","263","100","45","true","91","106","5","true"
"264","91.5","15","true","264","88.83333333333333","55","true","264","100","45","true","91","0","5","false"
"265","91.5","15","true","265","89","55","true","265","100","45","true","91","106","5","true"
"266","91.5","15","true","266","89.16666666666667","55","true","266","100","45","true","91","0","5","false"
"267","91.5","15","true","267","89.33333333333333","55","true","267","100","45","true","91","106","5","true"
"268","91.5","15","true","268","89.66666666666666","55","true","268","100","45","true","91","0","5","false"
"269","91.5","15","true","269","90","55","true","269","100","45","true","91","106","5","true"
"270","91.5","15","true","270","90.33333333333333","55","true","270","100","45","true","91","0","5","false"
"271","91.5","15","true","271","90.66666666666666","55","true","271","100","45","true","91","106","5","true"
"272","91.5","15","true","272","90.66666666666666","55","true","272","100","45","true","91","0","5","false"
"273","91.5","15","true","273","90.66666666666666","55","true","273","100","45","true","91","106","5","true"
"274","91.5","15","true","274","90.83333333333333","55","true","274","100","45","true","91","0","5","false"
"275","91.5","15","true","275","90.83333333333333","55","true","275","100","45","true","91","106","5","true"
"276","91.5","15","true","276","90.83333333333333","55","true","276","100","45","true","91","0","5","false"
"277","91.5","15","true","277","90.83333333333333","55","true","277","100","45","true","91","106","5","true"
"278","91.5","15","true","278","90.83333333333333","55","true","278","100","45","true","91","0","5","false"
"279","91.5","15","true","279","90.83333333333333","55","true","279","100","45","true","91","106","5","true"
"280","91.5","15","true","280","90.83333333333333","55","true","280","100","45","true","91","0","5","false"
"281","91.5","15","true","281","90.83333333333333","55","true","281","100","45","true","91","106","5","true"
"282","91.5","15","true","282","91","55","true","282","100","45","true","91","0","5","false"
"283","91.5","15","true","283","91","55","true","283","100","45","true","91","106","5","true"
"284","91.5","15","true","284","91","55","true","284","100","45","true","91","0","5","false"
"285","91.5","15","true","285","91","55","true","285","100","45","true","91","106","5","true"
"286","91.5","15","true","286","91","55","true","286","100","45","true","91","0","5","false"
"287","91.5","15","true","287","91","55","true","287","100","45","true","91","106","5","true"
"288","91.5","15","true","288","91","55","true","288","100","45","true","91","0","5","false"
"289","91.5","15","true","289","91","55","true","289","100","45","true","91","106","5","true"
"290","91.5","15","true","290","91.16666666666666","55","true","290","100","45","true","91","0","5","false"
"291","91.5","15","true","291","91.16666666666666","55","true","291","100","45","true","91","106","5","true"
"292","91.5","15","true","292","91.16666666666666","55","true","292","100","45","true","91","0","5","false"
"293","91.5","15","true","293","91.33333333333333","55","true","293","100","45","true","91","106","5","true"
"294","91.5","15","true","294","91.33333333333333","55","true","294","100","45","true","91","0","5","false"
"295","91.5","15","true","295","91.33333333333333","55","true","295","100","45","true","91","106","5","true"
"296","91.5","15","true","296","91.33333333333333","55","true","296","100","45","true","91","0","5","false"
"297","91.5","15","true","297","91.5","55","true","297","100","45","true","91","106","5","true"
,,,,,,,,,,,,"91","0","5","false"
,,,,,,,,,,,,"91","106","5","true"
,,,,,,,,,,,,"91","0","5","false"
,,,,,,,,,,,,"91","106","5","true"
,,,,,,,,,,,,"91","0","5","false"
,,,,,,,,,,,,"91","106","5","true"
,,,,,,,,,,,,"91","0","5","false"
,,,,,,,,,,,,"91","106","5","true"
,,,,,,,,,,,,"91","0","5","false"
,,,,,,,,,,,,"91","106","5","true"
,,,,,,,,,,,,"91","0","5","false"
,,,,,,,,,,,,"91","106","5","true"
,,,,,,,,,,,,"91","0","5","false"
,,,,,,,,,,,,"91","106","5","true"
,,,,,,,,,,,,"91","0","5","false"
,,,,,,,,,,,,"91","106","5","true"
,,,,,,,,,,,,"91","0","5","false"
,,,,,,,,,,,,"91","106","5","true"
,,,,,,,,,,,,"91","0","5","false"
,,,,,,,,,,,,"91","106","5","true"
,,,,,,,,,,,,"91","0","5","false"
,,,,,,,,,,,,"91","106","5","true"
,,,,,,,,,,,,"91","0","5","false"
,,,,,,,,,,,,"91","106","5","true"
,,,,,,,,,,,,"91","0","5","false"
,,,,,,,,,,,,"91","106","5","true"
,,,,,,,,,,,,"91","0","5","false"
,,,,,,,,,,,,"91","106","5","true"
,,,,,,,,,,,,"91","0","5","false"
,,,,,,,,,,,,"91","106","5","true"
,,,,,,,,,,,,"91","0","5","false"
,,,,,,,,,,,,"91","106","5","true"
,,,,,,,,,,,,"91","0","5","false"
,,,,,,,,,,,,"91","106","5","true"
,,,,,,,,,,,,"91","0","5","false"
,,,,,,,,,,,,"91","106","5","true"
,,,,,,,,,,,,"91","0","5","false"
,,,,,,,,,,,,"91","106","5","true"
,,,,,,,,,,,,"91","0","5","false"
,,,,,,,,,,,,"91","106","5","true"
,,,,,,,,,,,,"91","0","5","false"
,,,,,,,,,,,,"91","106","5","true"
,,,,,,,,,,,,"91","0","5","false"
,,,,,,,,,,,,"91","106","5","true"
,,,,,,,,,,,,"91","0","5","false"
,,,,,,,,,,,,"91","106","5","true"
,,,,,,,,,,,,"91","0","5","false"
,,,,,,,,,,,,"91","106","5","true"
,,,,,,,,,,,,"91","0","5","false"
,,,,,,,,,,,,"91","106","5","true"
,,,,,,,,,,,,"91","0","5","false"
,,,,,,,,,,,,"91","106","5","true"
,,,,,,,,,,,,"91","0","5","false"
,,,,,,,,,,,,"91","106","5","true"
,,,,,,,,,,,,"91","0","5","false"
,,,,,,,,,,,,"91","106","5","true"
,,,,,,,,,,,,"91","0","5","false"
,,,,,,,,,,,,"91","106","5","true"
,,,,,,,,,,,,"91","0","5","false"
,,,,,,,,,,,,"91","106","5","true"
,,,,,,,,,,,,"91","0","5","false"
,,,,,,,,,,,,"91","106","5","true"
,,,,,,,,,,,,"91","0","5","false"
,,,,,,,,,,,,"91","106","5","true"
,,,,,,,,,,,,"91","0","5","false"
,,,,,,,,,,,,"91","106","5","true"
,,,,,,,,,,,,"91","0","5","false"
,,,,,,,,,,,,"91","106","5","true"
,,,,,,,,,,,,"91","0","5","false"
,,,,,,,,,,,,"91","106","5","true"
,,,,,,,,,,,,"91","0","5","false"
,,,,,,,,,,,,"91","106","5","true"
,,,,,,,,,,,,"91","0","5","false"
,,,,,,,,,,,,"91","106","5","true"
,,,,,,,,,,,,"91","0","5","false"
,,,,,,,,,,,,"91","106","5","true"
,,,,,,,,,,,,"91","0","5","false"
,,,,,,,,,,,,"91","106","5","true"
,,,,,,,,,,,,"91","0","5","false"
,,,,,,,,,,,,"91","106","5","true"
,,,,,,,,,,,,"91","0","5","false"
,,,,,,,,,,,,"91","106","5","true"
,,,,,,,,,,,,"91","0","5","false"
,,,,,,,,,,,,"91","106","5","true"
,,,,,,,,,,,,"91","0","5","false"
,,,,,,,,,,,,"91","106","5","true"
,,,,,,,,,,,,"91","0","5","false"
,,,,,,,,,,,,"91","106","5","true"
,,,,,,,,,,,,"91","0","5","false"
,,,,,,,,,,,,"91","106","5","true"
,,,,,,,,,,,,"91","0","5","false"
,,,,,,,,,,,,"91","106","5","true"
,,,,,,,,,,,,"91","0","5","false"
,,,,,,,,,,,,"91","106","5","true"
,,,,,,,,,,,,"91","0","5","false"
,,,,,,,,,,,,"91","106","5","true"
,,,,,,,,,,,,"91","0","5","false"
,,,,,,,,,,,,"91","106","5","true"
,,,,,,,,,,,,"91","0","5","false"
,,,,,,,,,,,,"91","106","5","true"
,,,,,,,,,,,,"91","0","5","false"
,,,,,,,,,,,,"91","106","5","true"
,,,,,,,,,,,,"91","0","5","false"
,,,,,,,,,,,,"91","106","5","true"
,,,,,,,,,,,,"91","0","5","false"
,,,,,,,,,,,,"91","106","5","true"
,,,,,,,,,,,,"91","0","5","false"
,,,,,,,,,,,,"91","106","5","true"
,,,,,,,,,,,,"91","0","5","false"
,,,,,,,,,,,,"91","106","5","true"
,,,,,,,,,,,,"91","0","5","false"
,,,,,,,,,,,,"91","106","5","true"
,,,,,,,,,,,,"91","0","5","false"
,,,,,,,,,,,,"91","106","5","true"
